grid_no;seniority_year_req;min_salary;max_salary;dept_no
1;1;38000;39000;d001
2;2;39000;40000;d001
3;3;40000;41000;d001
4;4;41000;42000;d001
5;5;42000;50000;d001
6;6;43000;55000;d001
7;7;44000;60000;d001
8;8;45000;75000;d001
9;9;46000;85000;d001
10;10;50000;100000;d001
11;1;38000;39000;d002
12;2;39000;40000;d002
13;3;40000;41000;d002
14;4;41000;42000;d002
15;5;42000;50000;d002
16;6;43000;55000;d002
17;7;44000;60000;d002
18;8;45000;75000;d002
19;9;46000;85000;d002
20;10;50000;100000;d002
21;1;38000;39000;d003
22;2;39000;40000;d003
23;3;40000;41000;d003
24;4;41000;42000;d003
25;5;42000;50000;d003
26;6;43000;55000;d003
27;7;44000;60000;d003
28;8;45000;75000;d003
29;9;46000;85000;d003
30;10;50000;100000;d003
31;1;38000;39000;d004
32;2;39000;40000;d004
33;3;40000;41000;d004
34;4;41000;42000;d004
35;5;42000;50000;d004
36;6;43000;55000;d004
37;7;44000;60000;d004
38;8;45000;75000;d004
39;9;46000;85000;d004
40;10;50000;100000;d004
41;1;38000;39000;d005
42;2;39000;40000;d005
43;3;40000;41000;d005
44;4;41000;42000;d005
45;5;42000;50000;d005
46;6;43000;55000;d005
47;7;44000;60000;d005
48;8;45000;75000;d005
49;9;46000;85000;d005
50;10;50000;100000;d005
51;1;38000;39000;d006
52;2;39000;40000;d006
53;3;40000;41000;d006
54;4;41000;42000;d006
55;5;42000;50000;d006
56;6;43000;55000;d006
57;7;44000;60000;d006
58;8;45000;75000;d006
59;9;46000;85000;d006
60;10;50000;100000;d006
61;1;38000;39000;d007
62;2;39000;40000;d007
63;3;40000;41000;d007
64;4;41000;42000;d007
65;5;42000;50000;d007
66;6;43000;55000;d007
67;7;44000;60000;d007
68;8;45000;75000;d007
69;9;46000;85000;d007
70;10;50000;100000;d007
71;1;38000;39000;d008
72;2;39000;40000;d008
73;3;40000;41000;d008
74;4;41000;42000;d008
75;5;42000;50000;d008
76;6;43000;55000;d008
77;7;44000;60000;d008
78;8;45000;75000;d008
79;9;46000;85000;d008
80;10;50000;100000;d008
81;1;38000;39000;d009
82;2;39000;40000;d009
83;3;40000;41000;d009
84;4;41000;42000;d009
85;5;42000;50000;d009
86;6;43000;55000;d009
87;7;44000;60000;d009
88;8;45000;75000;d009
89;9;46000;85000;d009
90;10;50000;100000;d009